<?xml version="1.0" encoding="utf-8"?>
<!-- Generator: Adobe Illustrator 15.0.0, SVG Export Plug-In  -->
<!DOCTYPE svg PUBLIC "-//W3C//DTD SVG 1.1//EN" "http://www.w3.org/Graphics/SVG/1.1/DTD/svg11.dtd" [
	<!ENTITY ns_flows "http://ns.adobe.com/Flows/1.0/">
]>
<svg version="1.1"
	 xmlns="http://www.w3.org/2000/svg" xmlns:xlink="http://www.w3.org/1999/xlink" xmlns:a="http://ns.adobe.com/AdobeSVGViewerExtensions/3.0/"
	 x="0px" y="0px" width="50px" height="50px" viewBox="0 0 50 50" enable-background="new 0 0 50 50" xml:space="preserve">
<defs>
</defs>
<path fill="#FFFFFF" d="M35.876,17.938C35.876,8.032,27.843,0,17.938,0C8.032,0,0,8.032,0,17.938s8.032,17.938,17.938,17.938
	C27.843,35.876,35.876,27.844,35.876,17.938z M17.938,31.391c-7.419,0-13.454-6.034-13.454-13.453S10.519,4.484,17.938,4.484
	c7.417,0,13.453,6.035,13.453,13.454C31.391,25.356,25.355,31.391,17.938,31.391z"/>
<path fill="#FFFFFF" d="M46.326,39.049L33.732,26.454c-1.875,2.918-4.36,5.403-7.277,7.278l12.594,12.594
	c2.012,2.011,5.271,2.011,7.277,0C48.337,44.318,48.337,41.061,46.326,39.049z"/>
</svg>
