<?xml version="1.0" encoding="utf-8"?>
<!-- Generator: Adobe Illustrator 15.0.0, SVG Export Plug-In  -->
<!DOCTYPE svg PUBLIC "-//W3C//DTD SVG 1.1//EN" "http://www.w3.org/Graphics/SVG/1.1/DTD/svg11.dtd" [
	<!ENTITY ns_flows "http://ns.adobe.com/Flows/1.0/">
]>
<svg version="1.1"
	 xmlns="http://www.w3.org/2000/svg" xmlns:xlink="http://www.w3.org/1999/xlink" xmlns:a="http://ns.adobe.com/AdobeSVGViewerExtensions/3.0/"
	 x="0px" y="0px" width="50px" height="50px" viewBox="-16.848 -11.176 50 50" enable-background="new -16.848 -11.176 50 50"
	 xml:space="preserve">
<defs>
</defs>
<polygon fill="#2BA9FE" points="2.274,15.771 2.274,15.771 14.031,27.528 16.307,25.252 4.55,13.496 15.77,2.274 13.495,0 0,13.496 
	"/>
</svg>
