<?xml version="1.0" encoding="utf-8"?>
<!-- Generator: Adobe Illustrator 15.0.0, SVG Export Plug-In  -->
<!DOCTYPE svg PUBLIC "-//W3C//DTD SVG 1.1//EN" "http://www.w3.org/Graphics/SVG/1.1/DTD/svg11.dtd" [
	<!ENTITY ns_flows "http://ns.adobe.com/Flows/1.0/">
]>
<svg version="1.1"
	 xmlns="http://www.w3.org/2000/svg" xmlns:xlink="http://www.w3.org/1999/xlink" xmlns:a="http://ns.adobe.com/AdobeSVGViewerExtensions/3.0/"
	 x="0px" y="0px" width="64px" height="64px" viewBox="0 0 64 64" enable-background="new 0 0 64 64" xml:space="preserve">
<defs>
</defs>
<g>
	<defs>
		<rect id="SVGID_1_" width="64" height="64"/>
	</defs>
	<clipPath id="SVGID_2_">
		<use xlink:href="#SVGID_1_"  overflow="visible"/>
	</clipPath>
	<path clip-path="url(#SVGID_2_)" fill-rule="evenodd" clip-rule="evenodd" fill="#0298FE" d="M32,64C14.327,64,0,49.673,0,32
		S14.327,0,32,0s32,14.327,32,32S49.673,64,32,64 M32,6C17.641,6,6,17.64,6,32c0,14.36,11.641,26,26,26c14.359,0,26-11.64,26-26
		C58,17.64,46.359,6,32,6 M45,35h-6h-4h-3c-1.657,0-3-1.343-3-3V14c0-1.657,1.343-3,3-3s3,1.343,3,3v15h4h6c1.657,0,3,1.343,3,3
		S46.657,35,45,35"/>
</g>
</svg>
